id,user,title,content,photo1,photo2,photo3,created_at,updated_at
nonmot0614,テスト,これはテストです。,EVtFzlhUwAUEuzk.jpg,,,2020-12-14 04:44:57.943306+00:00,2020-12-14 04:44:57.943306+00:00
nonmot0614,日記1のタイトル,日記1の本文本文本文本文本文本文本文本文本文本文本文本文本文本文本文本文本文本文本文本文本文本文本文本文本文本文,,,,2020-12-14 05:02:40.581925+00:00,2020-12-14 05:02:40.581925+00:00
nonmot0614,日記2のタイトル,日記2の本文本文本文本文本文本文本文本文本文本文本文本文本文本文本文本文本文本文本文本文本文本文,,,,2020-12-14 05:03:00.671329+00:00,2020-12-14 05:03:00.671329+00:00
nonmot0614,日記3のタイトル,日記3の本文本文本文本文本文本文本文本文本文本文本文本文本文本文本文本文本文本文本文本文本文本文本文本文本文本文,,,,2020-12-14 05:03:17.817474+00:00,2020-12-14 05:03:17.817474+00:00
nonmot0614,フォームから作成した日記,フォームから作成したよ！フォームから作成したよ！フォームから作成したよ！フォームから作成したよ！フォームから作成したよ！,img_0d810b92d6721811387368a00607e9d0249350.jpg,,,2020-12-14 13:49:44.413682+00:00,2020-12-14 14:03:34.547416+00:00
